<mxfile host="Electron" modified="2024-01-26T10:50:36.629Z" agent="Mozilla/5.0 (Windows NT 10.0; Win64; x64) AppleWebKit/537.36 (KHTML, like Gecko) draw.io/22.1.21 Chrome/120.0.6099.109 Electron/28.1.0 Safari/537.36" etag="Y2mhIJci2CyojLvg2bp5" version="22.1.21" type="device" pages="2">
  <diagram name="Seite-1" id="9jAh4a2_OoBo1TH9UPMU">
    <mxGraphModel dx="2795" dy="703" grid="1" gridSize="10" guides="1" tooltips="1" connect="1" arrows="1" fold="1" page="0" pageScale="1" pageWidth="827" pageHeight="1169" math="0" shadow="0">
      <root>
        <mxCell id="0" />
        <mxCell id="1" parent="0" />
        <mxCell id="MEHZlpysGE3qstM4ODSE-14" style="edgeStyle=orthogonalEdgeStyle;rounded=0;orthogonalLoop=1;jettySize=auto;html=1;" edge="1" parent="1" source="MEHZlpysGE3qstM4ODSE-1" target="MEHZlpysGE3qstM4ODSE-2">
          <mxGeometry relative="1" as="geometry" />
        </mxCell>
        <mxCell id="MEHZlpysGE3qstM4ODSE-23" style="edgeStyle=orthogonalEdgeStyle;rounded=0;orthogonalLoop=1;jettySize=auto;html=1;" edge="1" parent="1" source="MEHZlpysGE3qstM4ODSE-1" target="MEHZlpysGE3qstM4ODSE-19">
          <mxGeometry relative="1" as="geometry" />
        </mxCell>
        <mxCell id="MEHZlpysGE3qstM4ODSE-1" value="Snake Game" style="rounded=1;whiteSpace=wrap;html=1;" vertex="1" parent="1">
          <mxGeometry x="340" y="240" width="120" height="60" as="geometry" />
        </mxCell>
        <mxCell id="MEHZlpysGE3qstM4ODSE-18" style="edgeStyle=orthogonalEdgeStyle;rounded=0;orthogonalLoop=1;jettySize=auto;html=1;" edge="1" parent="1" source="MEHZlpysGE3qstM4ODSE-1" target="MEHZlpysGE3qstM4ODSE-15">
          <mxGeometry relative="1" as="geometry" />
        </mxCell>
        <UserObject label="Basic Game Loop (Link)" link="data:page/id,aZYI0Vv5g2vDvqPCY0Mz" id="MEHZlpysGE3qstM4ODSE-2">
          <mxCell style="rounded=1;whiteSpace=wrap;html=1;fillColor=#6a00ff;fontColor=#ffffff;strokeColor=#3700CC;" vertex="1" parent="1">
            <mxGeometry x="325" y="695" width="150" height="30" as="geometry" />
          </mxCell>
        </UserObject>
        <mxCell id="MEHZlpysGE3qstM4ODSE-3" value="Simple Kanban" style="rounded=1;whiteSpace=wrap;html=1;fillColor=#0050ef;fontColor=#ffffff;strokeColor=#001DBC;" vertex="1" parent="1">
          <mxGeometry x="-1307" y="90" width="600" height="60" as="geometry" />
        </mxCell>
        <mxCell id="MEHZlpysGE3qstM4ODSE-4" value="TODO" style="rounded=1;whiteSpace=wrap;html=1;fillColor=#0050ef;fontColor=#ffffff;strokeColor=#001DBC;" vertex="1" parent="1">
          <mxGeometry x="-1307" y="190" width="120" height="60" as="geometry" />
        </mxCell>
        <mxCell id="MEHZlpysGE3qstM4ODSE-5" value="Doing" style="rounded=1;whiteSpace=wrap;html=1;fillColor=#0050ef;fontColor=#ffffff;strokeColor=#001DBC;" vertex="1" parent="1">
          <mxGeometry x="-1147" y="190" width="120" height="60" as="geometry" />
        </mxCell>
        <mxCell id="MEHZlpysGE3qstM4ODSE-7" value="Review" style="rounded=1;whiteSpace=wrap;html=1;fillColor=#0050ef;fontColor=#ffffff;strokeColor=#001DBC;" vertex="1" parent="1">
          <mxGeometry x="-987" y="190" width="120" height="60" as="geometry" />
        </mxCell>
        <mxCell id="MEHZlpysGE3qstM4ODSE-8" value="Done" style="rounded=1;whiteSpace=wrap;html=1;fillColor=#0050ef;fontColor=#ffffff;strokeColor=#001DBC;" vertex="1" parent="1">
          <mxGeometry x="-827" y="190" width="120" height="60" as="geometry" />
        </mxCell>
        <mxCell id="MEHZlpysGE3qstM4ODSE-10" value="Create Kanban board" style="rounded=1;whiteSpace=wrap;html=1;" vertex="1" parent="1">
          <mxGeometry x="-827" y="290" width="130" height="60" as="geometry" />
        </mxCell>
        <mxCell id="MEHZlpysGE3qstM4ODSE-11" value="Create a basic game loop in pygame" style="rounded=1;whiteSpace=wrap;html=1;" vertex="1" parent="1">
          <mxGeometry x="-1140" y="290" width="120" height="60" as="geometry" />
        </mxCell>
        <mxCell id="MEHZlpysGE3qstM4ODSE-12" value="Think of some modifiers" style="rounded=1;whiteSpace=wrap;html=1;" vertex="1" parent="1">
          <mxGeometry x="-1310" y="390" width="120" height="60" as="geometry" />
        </mxCell>
        <mxCell id="MEHZlpysGE3qstM4ODSE-13" value="Create Snake in PyGame" style="rounded=1;whiteSpace=wrap;html=1;" vertex="1" parent="1">
          <mxGeometry x="-1310" y="480" width="120" height="60" as="geometry" />
        </mxCell>
        <mxCell id="MEHZlpysGE3qstM4ODSE-15" value="Snake (Object)" style="rounded=1;whiteSpace=wrap;html=1;verticalAlign=top;container=1;" vertex="1" parent="1">
          <mxGeometry x="-300" y="180" width="530" height="470" as="geometry">
            <mxRectangle x="-300" y="180" width="120" height="30" as="alternateBounds" />
          </mxGeometry>
        </mxCell>
        <mxCell id="MEHZlpysGE3qstM4ODSE-16" value="Variables&lt;br&gt;&lt;br&gt;- Position&lt;br&gt;- Length&lt;br&gt;- Old Positions" style="rounded=1;whiteSpace=wrap;html=1;align=left;spacingLeft=11;verticalAlign=top;" vertex="1" parent="MEHZlpysGE3qstM4ODSE-15">
          <mxGeometry x="70" y="109.99703703703705" width="110" height="90" as="geometry" />
        </mxCell>
        <mxCell id="MEHZlpysGE3qstM4ODSE-20" value="Functions&lt;br&gt;&lt;br&gt;- EatFood&lt;br&gt;- Move" style="rounded=1;whiteSpace=wrap;html=1;align=left;verticalAlign=top;spacingBottom=-1;spacingLeft=12;" vertex="1" parent="MEHZlpysGE3qstM4ODSE-15">
          <mxGeometry x="270" y="154.9962962962963" width="90" height="70" as="geometry" />
        </mxCell>
        <mxCell id="MEHZlpysGE3qstM4ODSE-19" value="Food" style="rounded=1;whiteSpace=wrap;html=1;container=1;verticalAlign=top;" vertex="1" parent="1">
          <mxGeometry x="570" y="255" width="300" height="245" as="geometry" />
        </mxCell>
        <mxCell id="MEHZlpysGE3qstM4ODSE-22" value="Functions&lt;br&gt;&lt;br&gt;- Remove" style="rounded=1;whiteSpace=wrap;html=1;verticalAlign=top;align=left;spacingLeft=12;" vertex="1" parent="MEHZlpysGE3qstM4ODSE-19">
          <mxGeometry x="110" y="75" width="90" height="60" as="geometry" />
        </mxCell>
        <mxCell id="MEHZlpysGE3qstM4ODSE-21" value="Create Diagram with Snake things" style="rounded=1;whiteSpace=wrap;html=1;" vertex="1" parent="1">
          <mxGeometry x="-822" y="385" width="120" height="60" as="geometry" />
        </mxCell>
      </root>
    </mxGraphModel>
  </diagram>
  <diagram id="aZYI0Vv5g2vDvqPCY0Mz" name="Game Loop">
    <mxGraphModel dx="1114" dy="664" grid="1" gridSize="10" guides="1" tooltips="1" connect="1" arrows="1" fold="1" page="0" pageScale="1" pageWidth="827" pageHeight="1169" math="0" shadow="0">
      <root>
        <mxCell id="0" />
        <mxCell id="1" parent="0" />
        <mxCell id="TbVV6Uh9LiEiz6ogtLHN-1" value="Game Loop" style="rounded=1;whiteSpace=wrap;html=1;fillColor=#6a00ff;fontColor=#ffffff;strokeColor=#3700CC;" vertex="1" parent="1">
          <mxGeometry x="250" y="10" width="120" height="60" as="geometry" />
        </mxCell>
        <UserObject label="Back to main page" link="data:page/id,9jAh4a2_OoBo1TH9UPMU" id="TbVV6Uh9LiEiz6ogtLHN-2">
          <mxCell style="rounded=1;whiteSpace=wrap;html=1;fillColor=#6a00ff;fontColor=#ffffff;strokeColor=#3700CC;" vertex="1" parent="1">
            <mxGeometry x="40" y="10" width="120" height="60" as="geometry" />
          </mxCell>
        </UserObject>
        <mxCell id="TbVV6Uh9LiEiz6ogtLHN-5" style="edgeStyle=orthogonalEdgeStyle;rounded=0;orthogonalLoop=1;jettySize=auto;html=1;" edge="1" parent="1" source="TbVV6Uh9LiEiz6ogtLHN-3" target="TbVV6Uh9LiEiz6ogtLHN-4">
          <mxGeometry relative="1" as="geometry" />
        </mxCell>
        <mxCell id="TbVV6Uh9LiEiz6ogtLHN-3" value="Initialize Game (TODO)" style="rounded=1;whiteSpace=wrap;html=1;" vertex="1" parent="1">
          <mxGeometry x="315" y="165" width="150" height="30" as="geometry" />
        </mxCell>
        <mxCell id="TbVV6Uh9LiEiz6ogtLHN-7" style="edgeStyle=orthogonalEdgeStyle;rounded=0;orthogonalLoop=1;jettySize=auto;html=1;" edge="1" parent="1" source="TbVV6Uh9LiEiz6ogtLHN-4" target="TbVV6Uh9LiEiz6ogtLHN-6">
          <mxGeometry relative="1" as="geometry" />
        </mxCell>
        <mxCell id="TbVV6Uh9LiEiz6ogtLHN-4" value="Game Loop Start" style="rounded=1;whiteSpace=wrap;html=1;" vertex="1" parent="1">
          <mxGeometry x="335" y="295" width="110" height="30" as="geometry" />
        </mxCell>
        <mxCell id="TbVV6Uh9LiEiz6ogtLHN-9" style="edgeStyle=orthogonalEdgeStyle;rounded=0;orthogonalLoop=1;jettySize=auto;html=1;" edge="1" parent="1" source="TbVV6Uh9LiEiz6ogtLHN-6" target="TbVV6Uh9LiEiz6ogtLHN-8">
          <mxGeometry relative="1" as="geometry" />
        </mxCell>
        <mxCell id="TbVV6Uh9LiEiz6ogtLHN-6" value="Decide the direction to move in (decided from wasd)" style="rounded=1;whiteSpace=wrap;html=1;" vertex="1" parent="1">
          <mxGeometry x="295" y="415" width="190" height="45" as="geometry" />
        </mxCell>
        <mxCell id="TbVV6Uh9LiEiz6ogtLHN-11" style="edgeStyle=orthogonalEdgeStyle;rounded=0;orthogonalLoop=1;jettySize=auto;html=1;" edge="1" parent="1" source="TbVV6Uh9LiEiz6ogtLHN-8" target="TbVV6Uh9LiEiz6ogtLHN-15">
          <mxGeometry relative="1" as="geometry">
            <mxPoint x="390" y="635" as="targetPoint" />
          </mxGeometry>
        </mxCell>
        <mxCell id="TbVV6Uh9LiEiz6ogtLHN-8" value="Move in direction" style="rounded=1;whiteSpace=wrap;html=1;" vertex="1" parent="1">
          <mxGeometry x="335" y="525" width="110" height="30" as="geometry" />
        </mxCell>
        <mxCell id="TbVV6Uh9LiEiz6ogtLHN-17" style="edgeStyle=orthogonalEdgeStyle;rounded=0;orthogonalLoop=1;jettySize=auto;html=1;" edge="1" parent="1" source="TbVV6Uh9LiEiz6ogtLHN-15" target="TbVV6Uh9LiEiz6ogtLHN-16">
          <mxGeometry relative="1" as="geometry" />
        </mxCell>
        <mxCell id="TbVV6Uh9LiEiz6ogtLHN-19" value="Yes" style="edgeLabel;html=1;align=center;verticalAlign=middle;resizable=0;points=[];" vertex="1" connectable="0" parent="TbVV6Uh9LiEiz6ogtLHN-17">
          <mxGeometry x="-0.2028" relative="1" as="geometry">
            <mxPoint as="offset" />
          </mxGeometry>
        </mxCell>
        <mxCell id="TbVV6Uh9LiEiz6ogtLHN-21" style="edgeStyle=orthogonalEdgeStyle;rounded=0;orthogonalLoop=1;jettySize=auto;html=1;" edge="1" parent="1" source="TbVV6Uh9LiEiz6ogtLHN-15" target="TbVV6Uh9LiEiz6ogtLHN-20">
          <mxGeometry relative="1" as="geometry" />
        </mxCell>
        <mxCell id="TbVV6Uh9LiEiz6ogtLHN-22" value="No" style="edgeLabel;html=1;align=center;verticalAlign=middle;resizable=0;points=[];" vertex="1" connectable="0" parent="TbVV6Uh9LiEiz6ogtLHN-21">
          <mxGeometry x="-0.0071" y="-2" relative="1" as="geometry">
            <mxPoint as="offset" />
          </mxGeometry>
        </mxCell>
        <mxCell id="TbVV6Uh9LiEiz6ogtLHN-15" value="Check if collision (self or wall)" style="rhombus;whiteSpace=wrap;html=1;" vertex="1" parent="1">
          <mxGeometry x="270" y="660" width="240" height="85" as="geometry" />
        </mxCell>
        <mxCell id="TbVV6Uh9LiEiz6ogtLHN-16" value="Finish game&lt;br&gt;Show score&lt;br&gt;(Maybe highscore list)" style="rounded=1;whiteSpace=wrap;html=1;" vertex="1" parent="1">
          <mxGeometry x="30" y="672.5" width="140" height="60" as="geometry" />
        </mxCell>
        <mxCell id="TbVV6Uh9LiEiz6ogtLHN-24" style="edgeStyle=orthogonalEdgeStyle;rounded=0;orthogonalLoop=1;jettySize=auto;html=1;" edge="1" parent="1" source="TbVV6Uh9LiEiz6ogtLHN-20" target="TbVV6Uh9LiEiz6ogtLHN-23">
          <mxGeometry relative="1" as="geometry" />
        </mxCell>
        <mxCell id="TbVV6Uh9LiEiz6ogtLHN-20" value="Update head position" style="rounded=1;whiteSpace=wrap;html=1;" vertex="1" parent="1">
          <mxGeometry x="320" y="845" width="140" height="30" as="geometry" />
        </mxCell>
        <mxCell id="TbVV6Uh9LiEiz6ogtLHN-26" style="edgeStyle=orthogonalEdgeStyle;rounded=0;orthogonalLoop=1;jettySize=auto;html=1;" edge="1" parent="1" source="TbVV6Uh9LiEiz6ogtLHN-23" target="TbVV6Uh9LiEiz6ogtLHN-25">
          <mxGeometry relative="1" as="geometry" />
        </mxCell>
        <mxCell id="TbVV6Uh9LiEiz6ogtLHN-29" value="Yes" style="edgeLabel;html=1;align=center;verticalAlign=middle;resizable=0;points=[];" vertex="1" connectable="0" parent="TbVV6Uh9LiEiz6ogtLHN-26">
          <mxGeometry x="-0.2914" relative="1" as="geometry">
            <mxPoint as="offset" />
          </mxGeometry>
        </mxCell>
        <mxCell id="TbVV6Uh9LiEiz6ogtLHN-28" style="edgeStyle=orthogonalEdgeStyle;rounded=0;orthogonalLoop=1;jettySize=auto;html=1;" edge="1" parent="1" source="TbVV6Uh9LiEiz6ogtLHN-23" target="TbVV6Uh9LiEiz6ogtLHN-27">
          <mxGeometry relative="1" as="geometry" />
        </mxCell>
        <mxCell id="TbVV6Uh9LiEiz6ogtLHN-30" value="No" style="edgeLabel;html=1;align=center;verticalAlign=middle;resizable=0;points=[];" vertex="1" connectable="0" parent="TbVV6Uh9LiEiz6ogtLHN-28">
          <mxGeometry x="-0.0119" y="1" relative="1" as="geometry">
            <mxPoint as="offset" />
          </mxGeometry>
        </mxCell>
        <mxCell id="TbVV6Uh9LiEiz6ogtLHN-23" value="Ate food?" style="rhombus;whiteSpace=wrap;html=1;" vertex="1" parent="1">
          <mxGeometry x="350" y="930" width="80" height="80" as="geometry" />
        </mxCell>
        <mxCell id="TbVV6Uh9LiEiz6ogtLHN-32" style="edgeStyle=orthogonalEdgeStyle;rounded=0;orthogonalLoop=1;jettySize=auto;html=1;" edge="1" parent="1" source="TbVV6Uh9LiEiz6ogtLHN-25" target="TbVV6Uh9LiEiz6ogtLHN-31">
          <mxGeometry relative="1" as="geometry" />
        </mxCell>
        <mxCell id="TbVV6Uh9LiEiz6ogtLHN-25" value="Size + 1&lt;br&gt;Spawn new food" style="rounded=1;whiteSpace=wrap;html=1;" vertex="1" parent="1">
          <mxGeometry x="230" y="1100" width="110" height="40" as="geometry" />
        </mxCell>
        <mxCell id="TbVV6Uh9LiEiz6ogtLHN-33" style="edgeStyle=orthogonalEdgeStyle;rounded=0;orthogonalLoop=1;jettySize=auto;html=1;" edge="1" parent="1" source="TbVV6Uh9LiEiz6ogtLHN-27" target="TbVV6Uh9LiEiz6ogtLHN-31">
          <mxGeometry relative="1" as="geometry" />
        </mxCell>
        <mxCell id="TbVV6Uh9LiEiz6ogtLHN-27" value="Remove tail" style="rounded=1;whiteSpace=wrap;html=1;" vertex="1" parent="1">
          <mxGeometry x="465" y="1100" width="90" height="30" as="geometry" />
        </mxCell>
        <mxCell id="TbVV6Uh9LiEiz6ogtLHN-35" style="edgeStyle=orthogonalEdgeStyle;rounded=0;orthogonalLoop=1;jettySize=auto;html=1;" edge="1" parent="1" source="TbVV6Uh9LiEiz6ogtLHN-31" target="TbVV6Uh9LiEiz6ogtLHN-4">
          <mxGeometry relative="1" as="geometry">
            <mxPoint x="640" y="180" as="targetPoint" />
            <mxPoint x="420" y="1290" as="sourcePoint" />
            <Array as="points">
              <mxPoint x="690" y="1280" />
              <mxPoint x="690" y="310" />
            </Array>
          </mxGeometry>
        </mxCell>
        <mxCell id="TbVV6Uh9LiEiz6ogtLHN-31" value="Repeat" style="rounded=1;whiteSpace=wrap;html=1;" vertex="1" parent="1">
          <mxGeometry x="370" y="1265" width="60" height="30" as="geometry" />
        </mxCell>
      </root>
    </mxGraphModel>
  </diagram>
</mxfile>
